<svg width="24" height="24" viewBox="0 0 24 24" fill="none" xmlns="http://www.w3.org/2000/svg">
<path fill-rule="evenodd" clip-rule="evenodd" d="M12 10.25C12.4142 10.25 12.75 10.5858 12.75 11L12.75 13C12.75 13.4142 12.4142 13.75 12 13.75C11.5858 13.75 11.25 13.4142 11.25 13L11.25 11C11.25 10.5858 11.5858 10.25 12 10.25Z" fill="white"/>
<path fill-rule="evenodd" clip-rule="evenodd" d="M12 15.25C12.4142 15.25 12.75 15.5858 12.75 16L12.75 20C12.75 20.4142 12.4142 20.75 12 20.75C11.5858 20.75 11.25 20.4142 11.25 20L11.25 16C11.25 15.5858 11.5858 15.25 12 15.25Z" fill="white"/>
<path fill-rule="evenodd" clip-rule="evenodd" d="M12 3.25C12.4142 3.25 12.75 3.58579 12.75 4L12.75 8C12.75 8.41421 12.4142 8.75 12 8.75C11.5858 8.75 11.25 8.41421 11.25 8L11.25 4C11.25 3.58579 11.5858 3.25 12 3.25Z" fill="white"/>
<path fill-rule="evenodd" clip-rule="evenodd" d="M21.6552 5.24455C21.8742 5.43449 22 5.71012 22 6.00001V18C22 18.2899 21.8742 18.5655 21.6552 18.7555C21.4362 18.9454 21.1456 19.031 20.8586 18.99L14.8586 18.1328C14.3659 18.0624 14 17.6405 14 17.1429V6.85715C14 6.3595 14.3659 5.93758 14.8586 5.8672L20.8586 5.01006C21.1456 4.96906 21.4362 5.05462 21.6552 5.24455ZM16 7.72444V16.2756L20 16.847V7.15302L16 7.72444Z" fill="white"/>
<path fill-rule="evenodd" clip-rule="evenodd" d="M2.3448 5.24455C2.1258 5.43449 2 5.71012 2 6.00001V18C2 18.2899 2.1258 18.5655 2.3448 18.7555C2.5638 18.9454 2.85444 19.031 3.14142 18.99L9.14142 18.1328C9.63407 18.0624 10 17.6405 10 17.1429V6.85715C10 6.3595 9.63407 5.93758 9.14142 5.8672L3.14142 5.01006C2.85444 4.96906 2.5638 5.05462 2.3448 5.24455Z" fill="white"/>
</svg>
