<svg width="20" height="20" viewBox="0 0 20 20" fill="none" xmlns="http://www.w3.org/2000/svg">
<path fill-rule="evenodd" clip-rule="evenodd" d="M18 10C18 14.4183 14.4183 18 10 18C5.58172 18 2 14.4183 2 10C2 5.58172 5.58172 2 10 2C14.4183 2 18 5.58172 18 10ZM20 10C20 15.5228 15.5228 20 10 20C4.47715 20 0 15.5228 0 10C0 4.47715 4.47715 0 10 0C15.5228 0 20 4.47715 20 10ZM9 11C9 11.5523 9.44772 12 10 12C10.5523 12 11 11.5523 11 11V10.6509C12.3969 10.2235 13.4128 8.92384 13.4128 7.38695C13.4128 5.5021 11.8848 3.97412 9.99999 3.97412C8.11513 3.97412 6.58716 5.5021 6.58716 7.38695C6.58716 7.93923 7.03487 8.38695 7.58716 8.38695C8.13944 8.38695 8.58716 7.93923 8.58716 7.38695C8.58716 6.60667 9.2197 5.97412 9.99999 5.97412C10.7803 5.97412 11.4128 6.60667 11.4128 7.38695C11.4128 8.1328 10.8349 8.74366 10.1024 8.79612C10.0687 8.7927 10.0346 8.79095 10 8.79095C9.44772 8.79095 9 9.23866 9 9.79095V9.79419C8.99999 9.79605 8.99999 9.79791 8.99999 9.79978C8.99999 9.80164 8.99999 9.8035 9 9.80536L9 11ZM9 15C9 14.4477 9.44772 14 10 14C10.5523 14 11 14.4477 11 15C11 15.5523 10.5523 16 10 16C9.44772 16 9 15.5523 9 15Z" fill="#6FA0D5"/>
</svg>
